
************* 3/10/2021 04:06:03 PM *************
3/10/2021 04:06:03 PM-- API Call Success.------API called http://localhost:44762//search/createindex/rscatalogminiindex1234/PREVIEW/6/25/25 
***********************************************

************* 3/10/2021 04:06:03 PM *************
Indexer|6|rscatalogminiindex1234|6|25|Manually|http://localhost:44762/|2|25|PREVIEW|bG9jYWxob3N0OjY3NjZ8MTE1OTE1RjEtN0U2Qi00Mzg2LUE2MjMtOTc3OUYyN0Q5QTVF|0|600000
***********************************************

************* 3/10/2021 04:06:18 PM *************
3/10/2021 04:06:18 PM-- API Call Success.------API called http://localhost:44762//search/createindex/rscatalogminiindex1234/PRODUCTION/6/26/26 
***********************************************

************* 3/10/2021 04:06:18 PM *************
Indexer|6|rscatalogminiindex1234|6|26|Manually|http://localhost:44762/|2|26|PRODUCTION|bG9jYWxob3N0OjY3NjZ8MTE1OTE1RjEtN0U2Qi00Mzg2LUE2MjMtOTc3OUYyN0Q5QTVF|0|600000
***********************************************
